Introduction to jBmi with NHANES
…
Introduction to jBmi with NHANES

Data

First, let’s start with the built-in dataset, nhanes.

nhanes

## # A tibble: 4,253 x 5
##     seqn   age    sex height weight
##    <int> <dbl>  <chr>  <dbl>  <dbl>
## 1  73560   108   Male 1.3730   32.2
## 2  73563     5   Male     NA    7.4
## 3  73569    10 Female     NA     NA
## 4  73570   108 Female 1.3550   31.9
## 5  73572   120 Female 1.4540   41.7
## 6  73573   120   Male 1.5838   50.1
## 7  73575    18   Male     NA    9.4
## 8  73576   192   Male 1.7040   67.3
## 9  73578   216   Male 1.7520  109.4
## 10 73579   144 Female 1.6100   40.2
## # ... with 4,243 more rows

Units

Weight and height are in kilograms and meters, respectively. Age is in months. The calculations in this package are in those units. If your data are in other units, I recommend using conv_unit() in the birk package.

nhanes %>% mutate(`age (yr)` = conv_unit(age, from = "mon", to = "yr"),
                  `height (ft)` = conv_unit(height, from = "m", to = "inch"),
                  `weight (lb)` = conv_unit(weight, from = "kg", to = "lbs"))

## # A tibble: 4,253 x 8
##     seqn   age    sex height weight   age (yr) height (ft) weight (lb)
##    <int> <dbl>  <chr>  <dbl>  <dbl>      <dbl>       <dbl>       <dbl>
## 1  73560   108   Male 1.3730   32.2  9.0000000    54.05512    70.98884
## 2  73563     5   Male     NA    7.4  0.4166667          NA    16.31421
## 3  73569    10 Female     NA     NA  0.8333333          NA          NA
## 4  73570   108 Female 1.3550   31.9  9.0000000    53.34646    70.32745
## 5  73572   120 Female 1.4540   41.7 10.0000000    57.24409    91.93275
## 6  73573   120   Male 1.5838   50.1 10.0000000    62.35433   110.45158
## 7  73575    18   Male     NA    9.4  1.5000000          NA    20.72345
## 8  73576   192   Male 1.7040   67.3 16.0000000    67.08661   148.37108
## 9  73578   216   Male 1.7520  109.4 18.0000000    68.97638   241.18568
## 10 73579   144 Female 1.6100   40.2 12.0000000    63.38583    88.62582
## # ... with 4,243 more rows

Calculating BMI

Sticking with metric, we can first calculate BMI. Note that the formula for BMI is simply:

\[\frac{\text{weight (kg)}}{\text{height (m)}^2} = \frac{\text{weight (lb)}}{\text{height (in)}^2} \cdot 703\]

However, the function calcBMI() takes an optional age argument. This is because BMI is not meaningful for children under 24 months old. If age is supplied, then weight-for-age will be calculated for ages less than 24 months.

nhanes %>% mutate(type = ifelse(age < 24, "weight-for-age", "bmi"),
                  bmi = calcBMI(height, weight, age))

## BMI not meaningful for under 24 months - returning weight-for-age for those persons.

## # A tibble: 4,253 x 7
##     seqn   age    sex height weight           type      bmi
##    <int> <dbl>  <chr>  <dbl>  <dbl>          <chr>    <dbl>
## 1  73560   108   Male 1.3730   32.2            bmi 17.08106
## 2  73563     5   Male     NA    7.4 weight-for-age  7.40000
## 3  73569    10 Female     NA     NA weight-for-age       NA
## 4  73570   108 Female 1.3550   31.9            bmi 17.37449
## 5  73572   120 Female 1.4540   41.7            bmi 19.72456
## 6  73573   120   Male 1.5838   50.1            bmi 19.97271
## 7  73575    18   Male     NA    9.4 weight-for-age  9.40000
## 8  73576   192   Male 1.7040   67.3            bmi 23.17800
## 9  73578   216   Male 1.7520  109.4            bmi 35.64094
## 10 73579   144 Female 1.6100   40.2            bmi 15.50866
## # ... with 4,243 more rows

Of course, BMI can still be calculated without considering age.

nhanes %>% filter(age >= 24) %>%
  mutate(bmi = calcBMI(height, weight))

## # A tibble: 3,586 x 6
##     seqn   age    sex height weight      bmi
##    <int> <dbl>  <chr>  <dbl>  <dbl>    <dbl>
## 1  73560   108   Male 1.3730   32.2 17.08106
## 2  73570   108 Female 1.3550   31.9 17.37449
## 3  73572   120 Female 1.4540   41.7 19.72456
## 4  73573   120   Male 1.5838   50.1 19.97271
## 5  73576   192   Male 1.7040   67.3 23.17800
## 6  73578   216   Male 1.7520  109.4 35.64094
## 7  73579   144 Female 1.6100   40.2 15.50866
## 8  73583    84 Female 1.1690   19.7 14.41575
## 9  73584   156   Male 1.4490   53.1 25.29052
## 10 73586    48 Female 1.0940   18.6 15.54098
## # ... with 3,576 more rows

BMI is essentially the same regardless of whether it was calculated using the metric or imperial formula. Any differences can be chalked up to the approximation in the conversion factor, 703.

nhanes %>% filter(age >= 24) %>%
  mutate(`bmi (metric)` = calcBMI(height, weight),
         `height (ft)` = conv_unit(height, from = "m", to = "inch"),
         `weight (lb)` = conv_unit(weight, from = "kg", to = "lbs"),
         `bmi (imperial)` =  `weight (lb)` / `height (ft)`^2 * 703,
         Difference = `bmi (metric)` - `bmi (imperial)`) %>%
  select(contains("bmi"), Difference)

## # A tibble: 3,586 x 3
##    bmi (metric) bmi (imperial)  Difference
##           <dbl>          <dbl>       <dbl>
## 1      17.08106       17.07937 0.001692619
## 2      17.37449       17.37277 0.001721696
## 3      19.72456       19.72260 0.001954572
## 4      19.97271       19.97073 0.001979163
## 5      23.17800       23.17570 0.002296785
## 6      35.64094       35.63741 0.003531780
## 7      15.50866       15.50712 0.001536805
## 8      14.41575       14.41432 0.001428505
## 9      25.29052       25.28801 0.002506122
## 10     15.54098       15.53944 0.001540007
## # ... with 3,576 more rows

Calculating Z-Score

Z-Score is an intermediate statistic to percentile, which is much more commonly used. Z-Scores are calculated using parameters provided by the CDC. They’re available for various metrics but the common protocol is to use weight-for-age for children under 24 months, and BMI for children 24 to 240 months (2 to 20 years). CDC Z-Scores, growth charts, and percentiles are not made available for adults.

Z-Scores depend on the measurement (either BMI or weight-for-age), age, and sex.

nhanes %>% filter(age <= 240) %>%
  mutate(bmi = calcBMI(height, weight, age),
         z = calcZScore(age, sex, bmi),
         percentile = pnorm(z))

## BMI not meaningful for under 24 months - returning weight-for-age for those persons.

## # A tibble: 4,253 x 8
##     seqn   age    sex height weight      bmi          z percentile
##    <int> <dbl>  <chr>  <dbl>  <dbl>    <dbl>      <dbl>      <dbl>
## 1  73560   108   Male 1.3730   32.2 17.08106  0.4541073  0.6751242
## 2  73563     5   Male     NA    7.4  7.40000 -0.2589570  0.3978342
## 3  73569    10 Female     NA     NA       NA         NA         NA
## 4  73570   108 Female 1.3550   31.9 17.37449  0.4604086  0.6773885
## 5  73572   120 Female 1.4540   41.7 19.72456  0.9695528  0.8338653
## 6  73573   120   Male 1.5838   50.1 19.97271  1.1915271  0.8832766
## 7  73575    18   Male     NA    9.4  9.40000 -2.1400491  0.0161754
## 8  73576   192   Male 1.7040   67.3 23.17800  0.7930313  0.7861202
## 9  73578   216   Male 1.7520  109.4 35.64094  2.4146430  0.9921247
## 10 73579   144 Female 1.6100   40.2 15.50866 -1.2186540  0.1114878
## # ... with 4,243 more rows
